sim/logs/wr_bulk_rd_bulk_test.log
# vsim -c -coverage top "+UVM_TESTNAME=wr_bulk_rd_bulk_test" -voptargs="+acc" -l logs/wr_bulk_rd_bulk_test.log -do "coverage save -onexit cov/wr_bulk_rd_bulk_test.ucdb; run -all; quit -f" 
# Start time: 06:36:28 on Dec 24,2025
# ** Note: (vsim-8009) Loading existing optimized design _opt
# //  Questa Sim-64
# //  Version 10.7c win64 Aug 18 2018
# //
# //  Copyright 1991-2018 Mentor Graphics Corporation
# //  All Rights Reserved.
# //
# //  QuestaSim and its associated documentation contain trade
# //  secrets and commercial or financial information that are the property of
# //  Mentor Graphics Corporation and are privileged, confidential,
# //  and exempt from disclosure under the Freedom of Information Act,
# //  5 U.S.C. Section 552. Furthermore, this information
# //  is prohibited from disclosure under the Trade Secrets Act,
# //  18 U.S.C. Section 1905.
# //
# Loading sv_std.std
# Loading work.i2c_if(fast)
# Loading mtiUvm.uvm_pkg
# Loading work.i2c_pkg(fast)
# Loading work.top_sv_unit(fast)
# Loading work.top(fast)
# Loading work.i2c_if(fast)
# Loading work.i2c_mem(fast)
# Loading mtiUvm.questa_uvm_pkg(fast)
# Loading D:/questasim_b_install/uvm-1.1d\win64\uvm_dpi.dll
# coverage save -onexit cov/wr_bulk_rd_bulk_test.ucdb
#  run -all
# ----------------------------------------------------------------
# UVM-1.1d
# (C) 2007-2013 Mentor Graphics Corporation
# (C) 2007-2013 Cadence Design Systems, Inc.
# (C) 2006-2013 Synopsys, Inc.
# (C) 2011-2013 Cypress Semiconductor Corp.
# ----------------------------------------------------------------
# 
#   ***********       IMPORTANT RELEASE NOTES         ************
# 
#   You are using a version of the UVM library that has been compiled
#   with `UVM_NO_DEPRECATED undefined.
#   See http://www.eda.org/svdb/view.php?id=3313 for more details.
# 
#   You are using a version of the UVM library that has been compiled
#   with `UVM_OBJECT_MUST_HAVE_CONSTRUCTOR undefined.
#   See http://www.eda.org/svdb/view.php?id=3770 for more details.
# 
#       (Specify +UVM_NO_RELNOTES to turn off this notice)
# 
# UVM_INFO verilog_src/questa_uvm_pkg-1.2/src/questa_uvm_pkg.sv(215) @ 0: reporter [Questa UVM] QUESTA_UVM-1.2.3
# UVM_INFO verilog_src/questa_uvm_pkg-1.2/src/questa_uvm_pkg.sv(216) @ 0: reporter [Questa UVM]  questa_uvm::init(+struct)
# UVM_INFO @ 0: reporter [RNTST] Running test wr_bulk_rd_bulk_test...
# UVM_INFO @ 0: reporter [UVMTOP] UVM testbench topology:
# --------------------------------------------------------------
# Name                       Type                    Size  Value
# --------------------------------------------------------------
# uvm_test_top               wr_bulk_rd_bulk_test    -     @471 
#   env                      i2c_env                 -     @478 
#     agent                  i2c_agent               -     @489 
#       drv                  i2c_driver              -     @526 
#         rsp_port           uvm_analysis_port       -     @541 
#         seq_item_port      uvm_seq_item_pull_port  -     @533 
#       mon                  i2c_monitor             -     @519 
#         item_send_port     uvm_analysis_port       -     @667 
#       seqr                 uvm_sequencer           -     @549 
#         rsp_export         uvm_analysis_export     -     @556 
#         seq_item_export    uvm_seq_item_pull_imp   -     @650 
#         arbitration_queue  array                   0     -    
#         lock_queue         array                   0     -    
#         num_last_reqs      integral                32    'd1  
#         num_last_rsps      integral                32    'd1  
#     cov                    i2c_coverage            -     @503 
#       analysis_imp         uvm_analysis_imp        -     @510 
#     scb                    i2c_scoreboard          -     @496 
#       item_recv_imp        uvm_analysis_imp        -     @681 
# --------------------------------------------------------------
# 
# UVM_INFO ../uvc/env/i2c_driver.sv(35) @ 0: uvm_test_top.env.agent.drv [DRV] mode : WRITE addr : 105  din : 206
# UVM_INFO ../uvc/env/i2c_monitor.sv(54) @ 490: uvm_test_top.env.agent.mon [MON] DETECTED writed: addr=105, data_in=ce, data_out=0
# UVM_INFO ../uvc/env/i2c_scoreboard.sv(27) @ 490: uvm_test_top.env.scb [SCO] DATA WRITE OP  addr:105, wdata:206 arr_wr:206
# ----------------------------------------------------------------
# UVM_INFO ../uvc/env/i2c_driver.sv(35) @ 490: uvm_test_top.env.agent.drv [DRV] mode : WRITE addr : 72  din : 213
# UVM_INFO ../uvc/env/i2c_monitor.sv(54) @ 990: uvm_test_top.env.agent.mon [MON] DETECTED writed: addr=72, data_in=d5, data_out=0
# UVM_INFO ../uvc/env/i2c_scoreboard.sv(27) @ 990: uvm_test_top.env.scb [SCO] DATA WRITE OP  addr:72, wdata:213 arr_wr:213
# ----------------------------------------------------------------
# UVM_INFO ../uvc/env/i2c_driver.sv(35) @ 990: uvm_test_top.env.agent.drv [DRV] mode : WRITE addr : 109  din : 173
# UVM_INFO ../uvc/env/i2c_monitor.sv(54) @ 1490: uvm_test_top.env.agent.mon [MON] DETECTED writed: addr=109, data_in=ad, data_out=0
# UVM_INFO ../uvc/env/i2c_scoreboard.sv(27) @ 1490: uvm_test_top.env.scb [SCO] DATA WRITE OP  addr:109, wdata:173 arr_wr:173
# ----------------------------------------------------------------
# UVM_INFO ../uvc/env/i2c_driver.sv(35) @ 1490: uvm_test_top.env.agent.drv [DRV] mode : WRITE addr : 39  din : 121
# UVM_INFO ../uvc/env/i2c_monitor.sv(54) @ 1990: uvm_test_top.env.agent.mon [MON] DETECTED writed: addr=39, data_in=79, data_out=0
# UVM_INFO ../uvc/env/i2c_scoreboard.sv(27) @ 1990: uvm_test_top.env.scb [SCO] DATA WRITE OP  addr:39, wdata:121 arr_wr:121
# ----------------------------------------------------------------
# UVM_INFO ../uvc/env/i2c_driver.sv(35) @ 1990: uvm_test_top.env.agent.drv [DRV] mode : WRITE addr : 36  din : 43
# UVM_INFO ../uvc/env/i2c_monitor.sv(54) @ 2490: uvm_test_top.env.agent.mon [MON] DETECTED writed: addr=36, data_in=2b, data_out=0
# UVM_INFO ../uvc/env/i2c_scoreboard.sv(27) @ 2490: uvm_test_top.env.scb [SCO] DATA WRITE OP  addr:36, wdata:43 arr_wr:43
# ----------------------------------------------------------------
# UVM_INFO ../uvc/env/i2c_driver.sv(35) @ 2490: uvm_test_top.env.agent.drv [DRV] mode : WRITE addr : 59  din : 110
# UVM_INFO ../uvc/env/i2c_monitor.sv(54) @ 2990: uvm_test_top.env.agent.mon [MON] DETECTED writed: addr=59, data_in=6e, data_out=0
# UVM_INFO ../uvc/env/i2c_scoreboard.sv(27) @ 2990: uvm_test_top.env.scb [SCO] DATA WRITE OP  addr:59, wdata:110 arr_wr:110
# ----------------------------------------------------------------
# UVM_INFO ../uvc/env/i2c_driver.sv(35) @ 2990: uvm_test_top.env.agent.drv [DRV] mode : WRITE addr : 98  din : 47
# UVM_INFO ../uvc/env/i2c_monitor.sv(54) @ 3490: uvm_test_top.env.agent.mon [MON] DETECTED writed: addr=98, data_in=2f, data_out=0
# UVM_INFO ../uvc/env/i2c_scoreboard.sv(27) @ 3490: uvm_test_top.env.scb [SCO] DATA WRITE OP  addr:98, wdata:47 arr_wr:47
# ----------------------------------------------------------------
# UVM_INFO ../uvc/env/i2c_driver.sv(35) @ 3490: uvm_test_top.env.agent.drv [DRV] mode : WRITE addr : 101  din : 150
# UVM_INFO ../uvc/env/i2c_monitor.sv(54) @ 3990: uvm_test_top.env.agent.mon [MON] DETECTED writed: addr=101, data_in=96, data_out=0
# UVM_INFO ../uvc/env/i2c_scoreboard.sv(27) @ 3990: uvm_test_top.env.scb [SCO] DATA WRITE OP  addr:101, wdata:150 arr_wr:150
# ----------------------------------------------------------------
# UVM_INFO ../uvc/env/i2c_driver.sv(35) @ 3990: uvm_test_top.env.agent.drv [DRV] mode : WRITE addr : 42  din : 224
# UVM_INFO ../uvc/env/i2c_monitor.sv(54) @ 4490: uvm_test_top.env.agent.mon [MON] DETECTED writed: addr=42, data_in=e0, data_out=0
# UVM_INFO ../uvc/env/i2c_scoreboard.sv(27) @ 4490: uvm_test_top.env.scb [SCO] DATA WRITE OP  addr:42, wdata:224 arr_wr:224
# ----------------------------------------------------------------
# UVM_INFO ../uvc/env/i2c_driver.sv(35) @ 4490: uvm_test_top.env.agent.drv [DRV] mode : WRITE addr : 55  din : 213
# UVM_INFO ../uvc/env/i2c_monitor.sv(54) @ 4990: uvm_test_top.env.agent.mon [MON] DETECTED writed: addr=55, data_in=d5, data_out=0
# UVM_INFO ../uvc/env/i2c_scoreboard.sv(27) @ 4990: uvm_test_top.env.scb [SCO] DATA WRITE OP  addr:55, wdata:213 arr_wr:213
# ----------------------------------------------------------------
# UVM_INFO ../uvc/env/i2c_driver.sv(35) @ 4990: uvm_test_top.env.agent.drv [DRV] mode : WRITE addr : 104  din : 69
# UVM_INFO ../uvc/env/i2c_monitor.sv(54) @ 5490: uvm_test_top.env.agent.mon [MON] DETECTED writed: addr=104, data_in=45, data_out=0
# UVM_INFO ../uvc/env/i2c_scoreboard.sv(27) @ 5490: uvm_test_top.env.scb [SCO] DATA WRITE OP  addr:104, wdata:69 arr_wr:69
# ----------------------------------------------------------------
# UVM_INFO ../uvc/env/i2c_driver.sv(35) @ 5490: uvm_test_top.env.agent.drv [DRV] mode : WRITE addr : 114  din : 201
# UVM_INFO ../uvc/env/i2c_monitor.sv(54) @ 5990: uvm_test_top.env.agent.mon [MON] DETECTED writed: addr=114, data_in=c9, data_out=0
# UVM_INFO ../uvc/env/i2c_scoreboard.sv(27) @ 5990: uvm_test_top.env.scb [SCO] DATA WRITE OP  addr:114, wdata:201 arr_wr:201
# ----------------------------------------------------------------
# UVM_INFO ../uvc/env/i2c_driver.sv(35) @ 5990: uvm_test_top.env.agent.drv [DRV] mode : WRITE addr : 99  din : 85
# UVM_INFO ../uvc/env/i2c_monitor.sv(54) @ 6490: uvm_test_top.env.agent.mon [MON] DETECTED writed: addr=99, data_in=55, data_out=0
# UVM_INFO ../uvc/env/i2c_scoreboard.sv(27) @ 6490: uvm_test_top.env.scb [SCO] DATA WRITE OP  addr:99, wdata:85 arr_wr:85
# ----------------------------------------------------------------
# UVM_INFO ../uvc/env/i2c_driver.sv(35) @ 6490: uvm_test_top.env.agent.drv [DRV] mode : WRITE addr : 94  din : 218
# UVM_INFO ../uvc/env/i2c_monitor.sv(54) @ 6990: uvm_test_top.env.agent.mon [MON] DETECTED writed: addr=94, data_in=da, data_out=0
# UVM_INFO ../uvc/env/i2c_scoreboard.sv(27) @ 6990: uvm_test_top.env.scb [SCO] DATA WRITE OP  addr:94, wdata:218 arr_wr:218
# ----------------------------------------------------------------
# UVM_INFO ../uvc/env/i2c_driver.sv(35) @ 6990: uvm_test_top.env.agent.drv [DRV] mode : WRITE addr : 48  din : 231
# UVM_INFO ../uvc/env/i2c_monitor.sv(54) @ 7490: uvm_test_top.env.agent.mon [MON] DETECTED writed: addr=48, data_in=e7, data_out=0
# UVM_INFO ../uvc/env/i2c_scoreboard.sv(27) @ 7490: uvm_test_top.env.scb [SCO] DATA WRITE OP  addr:48, wdata:231 arr_wr:231
# ----------------------------------------------------------------
# UVM_INFO ../uvc/env/i2c_driver.sv(35) @ 7490: uvm_test_top.env.agent.drv [DRV] mode : WRITE addr : 48  din : 206
# UVM_INFO ../uvc/env/i2c_monitor.sv(54) @ 7990: uvm_test_top.env.agent.mon [MON] DETECTED writed: addr=48, data_in=ce, data_out=0
# UVM_INFO ../uvc/env/i2c_scoreboard.sv(27) @ 7990: uvm_test_top.env.scb [SCO] DATA WRITE OP  addr:48, wdata:206 arr_wr:206
# ----------------------------------------------------------------
# UVM_INFO ../uvc/env/i2c_driver.sv(35) @ 7990: uvm_test_top.env.agent.drv [DRV] mode : WRITE addr : 91  din : 58
# UVM_INFO ../uvc/env/i2c_monitor.sv(54) @ 8490: uvm_test_top.env.agent.mon [MON] DETECTED writed: addr=91, data_in=3a, data_out=0
# UVM_INFO ../uvc/env/i2c_scoreboard.sv(27) @ 8490: uvm_test_top.env.scb [SCO] DATA WRITE OP  addr:91, wdata:58 arr_wr:58
# ----------------------------------------------------------------
# UVM_INFO ../uvc/env/i2c_driver.sv(35) @ 8490: uvm_test_top.env.agent.drv [DRV] mode : WRITE addr : 33  din : 177
# UVM_INFO ../uvc/env/i2c_monitor.sv(54) @ 8990: uvm_test_top.env.agent.mon [MON] DETECTED writed: addr=33, data_in=b1, data_out=0
# UVM_INFO ../uvc/env/i2c_scoreboard.sv(27) @ 8990: uvm_test_top.env.scb [SCO] DATA WRITE OP  addr:33, wdata:177 arr_wr:177
# ----------------------------------------------------------------
# UVM_INFO ../uvc/env/i2c_driver.sv(35) @ 8990: uvm_test_top.env.agent.drv [DRV] mode : WRITE addr : 40  din : 202
# UVM_INFO ../uvc/env/i2c_monitor.sv(54) @ 9490: uvm_test_top.env.agent.mon [MON] DETECTED writed: addr=40, data_in=ca, data_out=0
# UVM_INFO ../uvc/env/i2c_scoreboard.sv(27) @ 9490: uvm_test_top.env.scb [SCO] DATA WRITE OP  addr:40, wdata:202 arr_wr:202
# ----------------------------------------------------------------
# UVM_INFO ../uvc/env/i2c_driver.sv(35) @ 9490: uvm_test_top.env.agent.drv [DRV] mode : WRITE addr : 121  din : 209
# UVM_INFO ../uvc/env/i2c_monitor.sv(54) @ 9990: uvm_test_top.env.agent.mon [MON] DETECTED writed: addr=121, data_in=d1, data_out=0
# UVM_INFO ../uvc/env/i2c_scoreboard.sv(27) @ 9990: uvm_test_top.env.scb [SCO] DATA WRITE OP  addr:121, wdata:209 arr_wr:209
# ----------------------------------------------------------------
# UVM_INFO ../uvc/env/i2c_driver.sv(35) @ 9990: uvm_test_top.env.agent.drv [DRV] mode : WRITE addr : 33  din : 13
# UVM_INFO ../uvc/env/i2c_monitor.sv(54) @ 10490: uvm_test_top.env.agent.mon [MON] DETECTED writed: addr=33, data_in=d, data_out=0
# UVM_INFO ../uvc/env/i2c_scoreboard.sv(27) @ 10490: uvm_test_top.env.scb [SCO] DATA WRITE OP  addr:33, wdata:13 arr_wr:13
# ----------------------------------------------------------------
# UVM_INFO ../uvc/env/i2c_driver.sv(35) @ 10490: uvm_test_top.env.agent.drv [DRV] mode : WRITE addr : 76  din : 24
# UVM_INFO ../uvc/env/i2c_monitor.sv(54) @ 10990: uvm_test_top.env.agent.mon [MON] DETECTED writed: addr=76, data_in=18, data_out=0
# UVM_INFO ../uvc/env/i2c_scoreboard.sv(27) @ 10990: uvm_test_top.env.scb [SCO] DATA WRITE OP  addr:76, wdata:24 arr_wr:24
# ----------------------------------------------------------------
# UVM_INFO ../uvc/env/i2c_driver.sv(35) @ 10990: uvm_test_top.env.agent.drv [DRV] mode : WRITE addr : 74  din : 105
# UVM_INFO ../uvc/env/i2c_monitor.sv(54) @ 11490: uvm_test_top.env.agent.mon [MON] DETECTED writed: addr=74, data_in=69, data_out=0
# UVM_INFO ../uvc/env/i2c_scoreboard.sv(27) @ 11490: uvm_test_top.env.scb [SCO] DATA WRITE OP  addr:74, wdata:105 arr_wr:105
# ----------------------------------------------------------------
# UVM_INFO ../uvc/env/i2c_driver.sv(35) @ 11490: uvm_test_top.env.agent.drv [DRV] mode : WRITE addr : 11  din : 189
# UVM_INFO ../uvc/env/i2c_monitor.sv(54) @ 11990: uvm_test_top.env.agent.mon [MON] DETECTED writed: addr=11, data_in=bd, data_out=0
# UVM_INFO ../uvc/env/i2c_scoreboard.sv(27) @ 11990: uvm_test_top.env.scb [SCO] DATA WRITE OP  addr:11, wdata:189 arr_wr:189
# ----------------------------------------------------------------
# UVM_INFO ../uvc/env/i2c_driver.sv(35) @ 11990: uvm_test_top.env.agent.drv [DRV] mode : WRITE addr : 100  din : 223
# UVM_INFO ../uvc/env/i2c_monitor.sv(54) @ 12490: uvm_test_top.env.agent.mon [MON] DETECTED writed: addr=100, data_in=df, data_out=0
# UVM_INFO ../uvc/env/i2c_scoreboard.sv(27) @ 12490: uvm_test_top.env.scb [SCO] DATA WRITE OP  addr:100, wdata:223 arr_wr:223
# ----------------------------------------------------------------
# UVM_INFO ../uvc/env/i2c_driver.sv(35) @ 12490: uvm_test_top.env.agent.drv [DRV] mode : WRITE addr : 39  din : 217
# UVM_INFO ../uvc/env/i2c_monitor.sv(54) @ 12990: uvm_test_top.env.agent.mon [MON] DETECTED writed: addr=39, data_in=d9, data_out=0
# UVM_INFO ../uvc/env/i2c_scoreboard.sv(27) @ 12990: uvm_test_top.env.scb [SCO] DATA WRITE OP  addr:39, wdata:217 arr_wr:217
# ----------------------------------------------------------------
# UVM_INFO ../uvc/env/i2c_driver.sv(35) @ 12990: uvm_test_top.env.agent.drv [DRV] mode : WRITE addr : 7  din : 56
# UVM_INFO ../uvc/env/i2c_monitor.sv(54) @ 13490: uvm_test_top.env.agent.mon [MON] DETECTED writed: addr=7, data_in=38, data_out=0
# UVM_INFO ../uvc/env/i2c_scoreboard.sv(27) @ 13490: uvm_test_top.env.scb [SCO] DATA WRITE OP  addr:7, wdata:56 arr_wr:56
# ----------------------------------------------------------------
# UVM_INFO ../uvc/env/i2c_driver.sv(35) @ 13490: uvm_test_top.env.agent.drv [DRV] mode : WRITE addr : 7  din : 76
# UVM_INFO ../uvc/env/i2c_monitor.sv(54) @ 13990: uvm_test_top.env.agent.mon [MON] DETECTED writed: addr=7, data_in=4c, data_out=0
# UVM_INFO ../uvc/env/i2c_scoreboard.sv(27) @ 13990: uvm_test_top.env.scb [SCO] DATA WRITE OP  addr:7, wdata:76 arr_wr:76
# ----------------------------------------------------------------
# UVM_INFO ../uvc/env/i2c_driver.sv(35) @ 13990: uvm_test_top.env.agent.drv [DRV] mode : WRITE addr : 34  din : 228
# UVM_INFO ../uvc/env/i2c_monitor.sv(54) @ 14490: uvm_test_top.env.agent.mon [MON] DETECTED writed: addr=34, data_in=e4, data_out=0
# UVM_INFO ../uvc/env/i2c_scoreboard.sv(27) @ 14490: uvm_test_top.env.scb [SCO] DATA WRITE OP  addr:34, wdata:228 arr_wr:228
# ----------------------------------------------------------------
# UVM_INFO ../uvc/env/i2c_driver.sv(35) @ 14490: uvm_test_top.env.agent.drv [DRV] mode : WRITE addr : 27  din : 138
# UVM_INFO ../uvc/env/i2c_monitor.sv(54) @ 14990: uvm_test_top.env.agent.mon [MON] DETECTED writed: addr=27, data_in=8a, data_out=0
# UVM_INFO ../uvc/env/i2c_scoreboard.sv(27) @ 14990: uvm_test_top.env.scb [SCO] DATA WRITE OP  addr:27, wdata:138 arr_wr:138
# ----------------------------------------------------------------
# UVM_INFO ../uvc/env/i2c_driver.sv(35) @ 14990: uvm_test_top.env.agent.drv [DRV] mode : WRITE addr : 21  din : 141
# UVM_INFO ../uvc/env/i2c_monitor.sv(54) @ 15490: uvm_test_top.env.agent.mon [MON] DETECTED writed: addr=21, data_in=8d, data_out=0
# UVM_INFO ../uvc/env/i2c_scoreboard.sv(27) @ 15490: uvm_test_top.env.scb [SCO] DATA WRITE OP  addr:21, wdata:141 arr_wr:141
# ----------------------------------------------------------------
# UVM_INFO ../uvc/env/i2c_driver.sv(35) @ 15490: uvm_test_top.env.agent.drv [DRV] mode : WRITE addr : 108  din : 10
# UVM_INFO ../uvc/env/i2c_monitor.sv(54) @ 15990: uvm_test_top.env.agent.mon [MON] DETECTED writed: addr=108, data_in=a, data_out=0
# UVM_INFO ../uvc/env/i2c_scoreboard.sv(27) @ 15990: uvm_test_top.env.scb [SCO] DATA WRITE OP  addr:108, wdata:10 arr_wr:10
# ----------------------------------------------------------------
# UVM_INFO ../uvc/env/i2c_driver.sv(35) @ 15990: uvm_test_top.env.agent.drv [DRV] mode : WRITE addr : 64  din : 28
# UVM_INFO ../uvc/env/i2c_monitor.sv(54) @ 16490: uvm_test_top.env.agent.mon [MON] DETECTED writed: addr=64, data_in=1c, data_out=0
# UVM_INFO ../uvc/env/i2c_scoreboard.sv(27) @ 16490: uvm_test_top.env.scb [SCO] DATA WRITE OP  addr:64, wdata:28 arr_wr:28
# ----------------------------------------------------------------
# UVM_INFO ../uvc/env/i2c_driver.sv(35) @ 16490: uvm_test_top.env.agent.drv [DRV] mode : WRITE addr : 75  din : 99
# UVM_INFO ../uvc/env/i2c_monitor.sv(54) @ 16990: uvm_test_top.env.agent.mon [MON] DETECTED writed: addr=75, data_in=63, data_out=0
# UVM_INFO ../uvc/env/i2c_scoreboard.sv(27) @ 16990: uvm_test_top.env.scb [SCO] DATA WRITE OP  addr:75, wdata:99 arr_wr:99
# ----------------------------------------------------------------
# UVM_INFO ../uvc/env/i2c_driver.sv(35) @ 16990: uvm_test_top.env.agent.drv [DRV] mode : WRITE addr : 114  din : 16
# UVM_INFO ../uvc/env/i2c_monitor.sv(54) @ 17490: uvm_test_top.env.agent.mon [MON] DETECTED writed: addr=114, data_in=10, data_out=0
# UVM_INFO ../uvc/env/i2c_scoreboard.sv(27) @ 17490: uvm_test_top.env.scb [SCO] DATA WRITE OP  addr:114, wdata:16 arr_wr:16
# ----------------------------------------------------------------
# UVM_INFO ../uvc/env/i2c_driver.sv(35) @ 17490: uvm_test_top.env.agent.drv [DRV] mode : WRITE addr : 84  din : 168
# UVM_INFO ../uvc/env/i2c_monitor.sv(54) @ 17990: uvm_test_top.env.agent.mon [MON] DETECTED writed: addr=84, data_in=a8, data_out=0
# UVM_INFO ../uvc/env/i2c_scoreboard.sv(27) @ 17990: uvm_test_top.env.scb [SCO] DATA WRITE OP  addr:84, wdata:168 arr_wr:168
# ----------------------------------------------------------------
# UVM_INFO ../uvc/env/i2c_driver.sv(35) @ 17990: uvm_test_top.env.agent.drv [DRV] mode : WRITE addr : 59  din : 140
# UVM_INFO ../uvc/env/i2c_monitor.sv(54) @ 18490: uvm_test_top.env.agent.mon [MON] DETECTED writed: addr=59, data_in=8c, data_out=0
# UVM_INFO ../uvc/env/i2c_scoreboard.sv(27) @ 18490: uvm_test_top.env.scb [SCO] DATA WRITE OP  addr:59, wdata:140 arr_wr:140
# ----------------------------------------------------------------
# UVM_INFO ../uvc/env/i2c_driver.sv(35) @ 18490: uvm_test_top.env.agent.drv [DRV] mode : WRITE addr : 122  din : 99
# UVM_INFO ../uvc/env/i2c_monitor.sv(54) @ 18990: uvm_test_top.env.agent.mon [MON] DETECTED writed: addr=122, data_in=63, data_out=0
# UVM_INFO ../uvc/env/i2c_scoreboard.sv(27) @ 18990: uvm_test_top.env.scb [SCO] DATA WRITE OP  addr:122, wdata:99 arr_wr:99
# ----------------------------------------------------------------
# UVM_INFO ../uvc/env/i2c_driver.sv(35) @ 18990: uvm_test_top.env.agent.drv [DRV] mode : WRITE addr : 82  din : 253
# UVM_INFO ../uvc/env/i2c_monitor.sv(54) @ 19490: uvm_test_top.env.agent.mon [MON] DETECTED writed: addr=82, data_in=fd, data_out=0
# UVM_INFO ../uvc/env/i2c_scoreboard.sv(27) @ 19490: uvm_test_top.env.scb [SCO] DATA WRITE OP  addr:82, wdata:253 arr_wr:253
# ----------------------------------------------------------------
# UVM_INFO ../uvc/env/i2c_driver.sv(35) @ 19490: uvm_test_top.env.agent.drv [DRV] mode : WRITE addr : 11  din : 31
# UVM_INFO ../uvc/env/i2c_monitor.sv(54) @ 19990: uvm_test_top.env.agent.mon [MON] DETECTED writed: addr=11, data_in=1f, data_out=0
# UVM_INFO ../uvc/env/i2c_scoreboard.sv(27) @ 19990: uvm_test_top.env.scb [SCO] DATA WRITE OP  addr:11, wdata:31 arr_wr:31
# ----------------------------------------------------------------
# UVM_INFO ../uvc/env/i2c_driver.sv(35) @ 19990: uvm_test_top.env.agent.drv [DRV] mode : WRITE addr : 104  din : 231
# UVM_INFO ../uvc/env/i2c_monitor.sv(54) @ 20490: uvm_test_top.env.agent.mon [MON] DETECTED writed: addr=104, data_in=e7, data_out=0
# UVM_INFO ../uvc/env/i2c_scoreboard.sv(27) @ 20490: uvm_test_top.env.scb [SCO] DATA WRITE OP  addr:104, wdata:231 arr_wr:231
# ----------------------------------------------------------------
# UVM_INFO ../uvc/env/i2c_driver.sv(35) @ 20490: uvm_test_top.env.agent.drv [DRV] mode : WRITE addr : 62  din : 24
# UVM_INFO ../uvc/env/i2c_monitor.sv(54) @ 20990: uvm_test_top.env.agent.mon [MON] DETECTED writed: addr=62, data_in=18, data_out=0
# UVM_INFO ../uvc/env/i2c_scoreboard.sv(27) @ 20990: uvm_test_top.env.scb [SCO] DATA WRITE OP  addr:62, wdata:24 arr_wr:24
# ----------------------------------------------------------------
# UVM_INFO ../uvc/env/i2c_driver.sv(35) @ 20990: uvm_test_top.env.agent.drv [DRV] mode : WRITE addr : 126  din : 221
# UVM_INFO ../uvc/env/i2c_monitor.sv(54) @ 21490: uvm_test_top.env.agent.mon [MON] DETECTED writed: addr=126, data_in=dd, data_out=0
# UVM_INFO ../uvc/env/i2c_scoreboard.sv(27) @ 21490: uvm_test_top.env.scb [SCO] DATA WRITE OP  addr:126, wdata:221 arr_wr:221
# ----------------------------------------------------------------
# UVM_INFO ../uvc/env/i2c_driver.sv(35) @ 21490: uvm_test_top.env.agent.drv [DRV] mode : WRITE addr : 94  din : 231
# UVM_INFO ../uvc/env/i2c_monitor.sv(54) @ 21990: uvm_test_top.env.agent.mon [MON] DETECTED writed: addr=94, data_in=e7, data_out=0
# UVM_INFO ../uvc/env/i2c_scoreboard.sv(27) @ 21990: uvm_test_top.env.scb [SCO] DATA WRITE OP  addr:94, wdata:231 arr_wr:231
# ----------------------------------------------------------------
# UVM_INFO ../uvc/env/i2c_driver.sv(35) @ 21990: uvm_test_top.env.agent.drv [DRV] mode : WRITE addr : 62  din : 119
# UVM_INFO ../uvc/env/i2c_monitor.sv(54) @ 22490: uvm_test_top.env.agent.mon [MON] DETECTED writed: addr=62, data_in=77, data_out=0
# UVM_INFO ../uvc/env/i2c_scoreboard.sv(27) @ 22490: uvm_test_top.env.scb [SCO] DATA WRITE OP  addr:62, wdata:119 arr_wr:119
# ----------------------------------------------------------------
# UVM_INFO ../uvc/env/i2c_driver.sv(35) @ 22490: uvm_test_top.env.agent.drv [DRV] mode : WRITE addr : 10  din : 221
# UVM_INFO ../uvc/env/i2c_monitor.sv(54) @ 22990: uvm_test_top.env.agent.mon [MON] DETECTED writed: addr=10, data_in=dd, data_out=0
# UVM_INFO ../uvc/env/i2c_scoreboard.sv(27) @ 22990: uvm_test_top.env.scb [SCO] DATA WRITE OP  addr:10, wdata:221 arr_wr:221
# ----------------------------------------------------------------
# UVM_INFO ../uvc/env/i2c_driver.sv(35) @ 22990: uvm_test_top.env.agent.drv [DRV] mode : WRITE addr : 79  din : 35
# UVM_INFO ../uvc/env/i2c_monitor.sv(54) @ 23490: uvm_test_top.env.agent.mon [MON] DETECTED writed: addr=79, data_in=23, data_out=0
# UVM_INFO ../uvc/env/i2c_scoreboard.sv(27) @ 23490: uvm_test_top.env.scb [SCO] DATA WRITE OP  addr:79, wdata:35 arr_wr:35
# ----------------------------------------------------------------
# UVM_INFO ../uvc/env/i2c_driver.sv(35) @ 23490: uvm_test_top.env.agent.drv [DRV] mode : WRITE addr : 72  din : 16
# UVM_INFO ../uvc/env/i2c_monitor.sv(54) @ 23990: uvm_test_top.env.agent.mon [MON] DETECTED writed: addr=72, data_in=10, data_out=0
# UVM_INFO ../uvc/env/i2c_scoreboard.sv(27) @ 23990: uvm_test_top.env.scb [SCO] DATA WRITE OP  addr:72, wdata:16 arr_wr:16
# ----------------------------------------------------------------
# UVM_INFO ../uvc/env/i2c_driver.sv(35) @ 23990: uvm_test_top.env.agent.drv [DRV] mode : WRITE addr : 22  din : 223
# UVM_INFO ../uvc/env/i2c_monitor.sv(54) @ 24490: uvm_test_top.env.agent.mon [MON] DETECTED writed: addr=22, data_in=df, data_out=0
# UVM_INFO ../uvc/env/i2c_scoreboard.sv(27) @ 24490: uvm_test_top.env.scb [SCO] DATA WRITE OP  addr:22, wdata:223 arr_wr:223
# ----------------------------------------------------------------
# UVM_INFO ../uvc/env/i2c_driver.sv(35) @ 24490: uvm_test_top.env.agent.drv [DRV] mode : WRITE addr : 13  din : 71
# UVM_INFO ../uvc/env/i2c_monitor.sv(54) @ 24990: uvm_test_top.env.agent.mon [MON] DETECTED writed: addr=13, data_in=47, data_out=0
# UVM_INFO ../uvc/env/i2c_scoreboard.sv(27) @ 24990: uvm_test_top.env.scb [SCO] DATA WRITE OP  addr:13, wdata:71 arr_wr:71
# ----------------------------------------------------------------
# UVM_INFO ../uvc/env/i2c_driver.sv(35) @ 24990: uvm_test_top.env.agent.drv [DRV] mode : WRITE addr : 121  din : 227
# UVM_INFO ../uvc/env/i2c_monitor.sv(54) @ 25490: uvm_test_top.env.agent.mon [MON] DETECTED writed: addr=121, data_in=e3, data_out=0
# UVM_INFO ../uvc/env/i2c_scoreboard.sv(27) @ 25490: uvm_test_top.env.scb [SCO] DATA WRITE OP  addr:121, wdata:227 arr_wr:227
# ----------------------------------------------------------------
# UVM_INFO ../uvc/env/i2c_driver.sv(35) @ 25490: uvm_test_top.env.agent.drv [DRV] mode : WRITE addr : 123  din : 146
# UVM_INFO ../uvc/env/i2c_monitor.sv(54) @ 25990: uvm_test_top.env.agent.mon [MON] DETECTED writed: addr=123, data_in=92, data_out=0
# UVM_INFO ../uvc/env/i2c_scoreboard.sv(27) @ 25990: uvm_test_top.env.scb [SCO] DATA WRITE OP  addr:123, wdata:146 arr_wr:146
# ----------------------------------------------------------------
# UVM_INFO ../uvc/env/i2c_driver.sv(35) @ 25990: uvm_test_top.env.agent.drv [DRV] mode : WRITE addr : 63  din : 87
# UVM_INFO ../uvc/env/i2c_monitor.sv(54) @ 26490: uvm_test_top.env.agent.mon [MON] DETECTED writed: addr=63, data_in=57, data_out=0
# UVM_INFO ../uvc/env/i2c_scoreboard.sv(27) @ 26490: uvm_test_top.env.scb [SCO] DATA WRITE OP  addr:63, wdata:87 arr_wr:87
# ----------------------------------------------------------------
# UVM_INFO ../uvc/env/i2c_driver.sv(35) @ 26490: uvm_test_top.env.agent.drv [DRV] mode : WRITE addr : 111  din : 114
